x y u v speed
20 20 -8.485281 8.485281 0.000255
40 20 -11.788063 2.245345 0.001026
60 20 -11.384200 -3.794733 0.000873
80 20 10.418918 -5.953667 0.002128
100 20 11.602452 -3.063184 0.008415
120 20 11.769447 -2.340964 0.020053
140 20 11.802324 -2.169133 0.041093
160 20 11.827877 -2.025174 0.080206
180 20 11.833677 1.991001 0.125629
20 40 -2.968599 11.627013 0.001164
40 40 -10.444789 5.908163 0.001365
60 40 2.214369 -11.793921 0.002991
80 40 7.864026 -9.064055 0.011280
100 40 9.530224 -7.292108 0.025672
120 40 10.134404 -6.426030 0.047529
140 40 10.191031 -6.335842 0.079934
160 40 9.834326 -6.876484 0.129792
180 40 9.037484 -7.894547 0.217335
20 60 -1.594669 11.893571 0.002167
40 60 -11.221913 4.250725 0.000847
60 60 3.708267 -11.412658 0.008504
80 60 6.192543 -10.278736 0.022765
100 60 7.516156 -9.354539 0.040731
120 60 8.058877 -8.891260 0.061414
140 60 7.835682 -9.088569 0.084132
160 60 6.554197 -10.051990 0.103745
180 60 3.074552 -11.599445 0.077280
20 80 -1.477718 11.908667 0.003313
40 80 -4.646790 -11.063785 0.001302
60 80 3.865013 -11.360532 0.016580
80 80 5.623257 -10.600895 0.036133
100 80 6.591404 -10.027631 0.054311
120 80 6.856712 -9.848121 0.068548
140 80 6.290103 -10.219325 0.077402
160 80 4.640405 -11.066465 0.075159
180 80 1.783200 -11.866769 0.040700
20 100 -1.627844 11.889076 0.004954
40 100 1.670219 -11.883197 0.005259
60 100 4.863043 -10.970452 0.030203
80 100 6.234331 -10.253444 0.053564
100 100 6.921373 -9.802785 0.067367
120 100 6.940412 -9.789315 0.071270
140 100 6.127306 -10.317758 0.067284
160 100 4.289513 -11.207144 0.054518
180 100 1.572945 -11.896463 0.025359
20 120 -1.731683 11.874396 0.006985
40 120 5.009832 -10.904200 0.018884
60 120 6.705483 -9.951708 0.056780
80 120 7.695968 -9.207176 0.077183
100 120 8.137916 -8.818975 0.078654
120 120 8.007751 -8.937333 0.069089
140 120 7.092259 -9.679869 0.054759
160 120 5.085944 -10.868908 0.037600
180 120 1.960559 -11.838759 0.015277
20 140 4.491549 11.127712 0.003559
40 140 7.867375 -9.061149 0.067430
60 140 8.884487 -8.066343 0.103845
80 140 9.440441 -7.407974 0.100536
100 140 9.664243 -7.113537 0.081013
120 140 9.492793 -7.340768 0.059085
140 140 8.672811 -8.293512 0.039483
160 140 6.716402 -9.944342 0.022662
180 140 3.000863 -11.618727 0.007486
20 160 10.291938 -6.170576 0.163239
40 160 10.663968 -5.502708 0.178394
60 160 10.788046 -5.255290 0.139087
80 160 10.942554 -4.925495 0.096302
100 160 11.010416 -4.771869 0.062738
120 160 10.883250 -5.055183 0.038940
140 160 10.340540 -6.088780 0.022184
160 160 8.841777 -8.113136 0.010277
180 160 5.314650 -10.758926 0.002222
20 180 11.728625 2.537589 0.160764
40 180 11.925025 -1.339319 0.121817
60 180 11.845333 -1.920437 0.072733
80 180 11.853639 -1.868485 0.041000
100 180 11.859237 -1.832622 0.023180
120 180 11.828700 -2.020360 0.012758
140 180 11.676687 -2.766765 0.006141
160 180 10.947234 -4.915085 0.001934
180 180 8.485281 -8.485281 0.000051
