x y u v speed
20 20 8.485281 -8.485281 0.001426
40 20 11.427032 -3.663733 0.010573
60 20 11.894192 -1.590033 0.023184
80 20 11.992905 -0.412600 0.031411
100 20 11.999920 0.043811 0.032868
120 20 11.989432 -0.503515 0.034891
140 20 11.899156 -1.552445 0.049254
160 20 11.869041 -1.768012 0.086904
180 20 11.788452 2.243299 0.122862
20 40 3.554590 -11.461452 0.010290
40 40 8.339955 -8.628161 0.031977
60 40 10.890982 -5.038503 0.053073
80 40 11.906360 -1.496190 0.066120
100 40 11.999985 0.019224 0.067416
120 40 11.885003 -1.657320 0.070031
140 40 11.046897 -4.686797 0.092942
160 40 10.152142 -6.397970 0.143303
180 40 9.771452 -6.965539 0.212004
20 60 1.439201 -11.913383 0.021612
40 60 4.493510 -11.126921 0.051210
60 60 7.974812 -8.966737 0.065763
80 60 11.734160 -2.511872 0.063519
100 60 11.970111 0.846424 0.055121
120 60 11.672257 -2.785394 0.053456
140 60 8.767432 -8.193421 0.073253
160 60 6.226012 -10.258497 0.095846
180 60 2.829046 -11.661754 0.055838
20 80 0.306936 -11.996074 0.028149
40 80 1.156932 -11.944099 0.061860
60 80 1.664672 -11.883975 0.062888
80 80 -5.963063 -10.413543 0.004950
100 80 11.395268 3.761365 0.007772
140 80 2.727607 -11.685896 0.053480
160 80 1.763618 -11.869695 0.068423
180 80 0.450683 -11.991534 0.034188
20 100 -0.191653 -11.998469 0.028552
40 100 -0.138208 -11.999204 0.063556
60 100 -0.162247 -11.998903 0.058577
80 100 2.237768 -11.789504 0.012226
140 100 -0.784300 -11.974342 0.054897
160 100 -0.220025 -11.997983 0.065447
180 100 -0.183052 -11.998604 0.033040
20 120 0.122028 -11.999380 0.028321
40 120 1.243095 -11.935439 0.066840
60 120 1.969614 -11.837256 0.058854
80 120 0.000000 0.000000 12.000000
100 120 0.000000 0.000000 12.000000
120 120 -10.458906 -5.883135 0.000220
140 120 1.323865 -11.926751 0.060151
160 120 1.048913 -11.954070 0.065073
180 120 0.294525 -11.996385 0.032758
20 140 2.128824 -11.809662 0.042006
40 140 5.520710 -10.654659 0.092336
60 140 7.989418 -8.953725 0.074366
80 140 11.592262 -3.101524 0.051490
100 140 11.993619 0.391270 0.054101
120 140 11.868470 -1.771839 0.060629
140 140 8.260751 -8.704021 0.066921
160 140 4.605890 -11.080874 0.054931
180 140 1.543161 -11.900364 0.025568
20 160 8.904701 -8.044023 0.182703
40 160 9.823023 -6.892621 0.149189
60 160 10.807985 -5.214160 0.098234
80 160 11.830359 -2.010622 0.072193
100 160 11.999558 -0.102973 0.068523
120 160 11.928777 -1.305478 0.067396
140 160 10.998438 -4.799412 0.055867
160 160 8.460722 -8.509770 0.035231
180 160 3.753635 -11.397817 0.012621
20 180 11.854604 1.862357 0.161679
40 180 11.825837 -2.037053 0.102784
60 180 11.856943 -1.847406 0.056668
80 180 11.980969 -0.675562 0.038581
100 180 11.999997 0.008122 0.035460
120 180 11.993535 -0.393855 0.034002
140 180 11.892347 -1.603774 0.025949
160 180 11.395544 -3.760529 0.012637
180 180 8.485281 -8.485281 0.002104
