x y u v speed
26 26 8.134162 -8.822438 0.002301
46 26 11.008140 -4.777117 0.006933
66 26 11.369348 -3.839001 0.013654
86 26 11.501762 -3.421911 0.023650
106 26 11.569751 -3.184472 0.038708
126 26 11.588294 -3.116318 0.061411
146 26 11.581320 -3.142138 0.096561
166 26 11.647758 -2.886129 0.153424
186 26 11.989133 0.510583 0.270749
26 46 3.562848 -11.458888 0.005982
46 46 7.272093 -9.545505 0.010198
66 46 8.704036 -8.260736 0.016891
86 46 9.535334 -7.285424 0.026881
106 46 10.056051 -6.547964 0.041212
126 46 10.243020 -6.251444 0.061618
146 46 10.090887 -6.494151 0.090602
166 46 9.318264 -7.561081 0.133086
186 46 5.050443 -10.885450 0.196022
26 66 2.061707 -11.821563 0.008661
46 66 3.930384 -11.338081 0.012713
66 66 5.277186 -10.777352 0.019374
86 66 6.551688 -10.053625 0.028661
106 66 7.532820 -9.341125 0.040374
126 66 7.913848 -9.020588 0.055298
146 66 7.547403 -9.329347 0.073780
166 66 5.938651 -10.427484 0.095052
186 66 3.441917 -11.495791 0.067567
26 86 0.720268 -11.978364 0.009197
46 86 0.392217 -11.993589 0.013951
66 86 1.542885 -11.900399 0.022120
86 86 3.158182 -11.576955 0.031507
106 86 4.447042 -11.145574 0.041189
126 86 4.962120 -10.925995 0.052468
146 86 4.547161 -11.105104 0.066028
166 86 3.235228 -11.555661 0.080563
186 86 3.100381 -11.592568 0.039340
26 106 -2.439759 -11.749365 0.006729
46 106 -4.091347 -11.280996 0.014501
66 106 -1.634345 -11.888184 0.025728
86 106 0.877314 -11.967887 0.034797
106 106 2.668884 -11.699447 0.042894
126 106 3.255681 -11.549915 0.052015
146 106 2.777386 -11.674165 0.062994
166 106 1.801611 -11.863987 0.074573
186 106 2.619945 -11.710503 0.030889
26 126 -11.715355 -2.598163 0.003048
46 126 -5.980058 -10.403793 0.015267
66 126 0.313911 -11.995893 0.025689
86 126 4.500500 -11.124095 0.037372
106 126 5.620262 -10.602483 0.047169
126 126 5.078068 -10.872590 0.052659
146 126 3.571520 -11.456188 0.059027
166 126 1.906389 -11.847602 0.067906
186 126 2.278622 -11.781676 0.030018
26 146 7.486589 9.378218 0.010810
46 146 9.829258 -6.883726 0.053239
66 146 9.845996 -6.859764 0.085689
86 146 9.991878 -6.645477 0.094325
106 146 9.924680 -6.745423 0.087462
126 146 9.328034 -7.549025 0.076492
146 146 7.897858 -9.034591 0.068027
166 146 5.192396 -10.818458 0.062094
186 146 2.771842 -11.675482 0.029872
26 166 11.928802 -1.305251 0.368040
46 166 11.905220 -1.505236 0.380368
66 166 11.919847 -1.384643 0.355257
86 166 11.937858 -1.219650 0.303431
106 166 11.924663 -1.342535 0.244016
126 166 11.844189 -1.927483 0.188192
146 166 11.612318 -3.025571 0.134311
166 166 10.809264 -5.211508 0.075682
186 166 5.320050 -10.756257 0.018595
26 186 9.992092 -6.645155 0.029558
46 186 9.752765 -6.991678 0.021852
66 186 6.459837 -10.112888 0.010210
86 186 -2.771708 -11.675514 0.005871
106 186 -5.837828 -10.484263 0.004835
126 186 -3.534806 -11.467569 0.003503
146 186 -4.193494 -11.243425 0.002369
166 186 -10.031122 -6.586090 0.001421
186 186 -9.048979 7.881369 0.000493
