x y u v speed
26 26 8.134162 -8.822438 0.002301
46 26 11.004841 -4.784713 0.006922
66 26 11.371466 -3.832723 0.013638
86 26 11.502931 -3.417979 0.023635
106 26 11.569917 -3.183868 0.038670
126 26 11.588522 -3.115472 0.061335
146 26 11.577441 -3.156398 0.096444
166 26 11.617433 -3.005870 0.153204
186 26 11.868229 -1.773458 0.299618
26 46 3.562848 -11.458888 0.005982
46 46 7.269961 -9.547128 0.010181
66 46 8.708294 -8.256247 0.016883
86 46 9.538530 -7.281239 0.026857
106 46 10.057167 -6.546250 0.041179
126 46 10.245681 -6.247081 0.061546
146 46 10.097297 -6.484181 0.090431
166 46 9.364063 -7.504287 0.132558
186 46 5.287943 -10.772078 0.203312
26 66 2.064525 -11.821072 0.008649
46 66 3.930384 -11.338081 0.012713
66 66 5.280123 -10.775913 0.019363
86 66 6.552759 -10.052928 0.028634
106 66 7.534146 -9.340056 0.040348
126 66 7.920306 -9.014919 0.055252
146 66 7.564023 -9.315877 0.073732
166 66 5.977784 -10.405100 0.095104
186 66 3.452434 -11.492637 0.068237
26 86 0.720268 -11.978364 0.009197
46 86 0.392217 -11.993589 0.013951
66 86 1.543716 -11.900292 0.022108
86 86 3.160505 -11.576321 0.031484
106 86 4.453672 -11.142926 0.041160
126 86 4.970808 -10.922045 0.052434
146 86 4.561426 -11.099252 0.066011
166 86 3.252982 -11.550676 0.080610
186 86 3.103071 -11.591848 0.039491
26 106 -2.439759 -11.749365 0.006729
46 106 -4.091347 -11.280996 0.014501
66 106 -1.629605 -11.888835 0.025714
86 106 0.882037 -11.967540 0.034774
106 106 2.673533 -11.698385 0.042874
126 106 3.264822 -11.547335 0.052002
146 106 2.784391 -11.672496 0.062991
166 106 1.808585 -11.862926 0.074604
186 106 2.623850 -11.709629 0.030953
26 126 -11.715355 -2.598163 0.003048
46 126 -5.984136 -10.401448 0.015256
66 126 0.313911 -11.995893 0.025689
86 126 4.501840 -11.123553 0.037361
106 126 5.623909 -10.600549 0.047164
126 126 5.082557 -10.870493 0.052670
146 126 3.575966 -11.454801 0.059034
166 126 1.907790 -11.847377 0.067932
186 126 2.281455 -11.781127 0.030044
26 146 7.486589 9.378218 0.010810
46 146 9.829258 -6.883726 0.053239
66 146 9.846235 -6.859421 0.085673
86 146 9.992582 -6.644418 0.094318
106 146 9.925965 -6.743532 0.087465
126 146 9.328779 -7.548104 0.076501
146 146 7.899058 -9.033542 0.068034
166 146 5.193376 -10.817987 0.062110
186 146 2.770759 -11.675739 0.029884
26 166 11.928802 -1.305251 0.368040
46 166 11.905267 -1.504863 0.380367
66 166 11.919847 -1.384643 0.355257
86 166 11.937858 -1.219650 0.303431
106 166 11.924671 -1.342470 0.244028
126 166 11.844228 -1.927241 0.188215
146 166 11.612454 -3.025048 0.134334
166 166 10.809623 -5.210763 0.075693
186 166 5.320050 -10.756257 0.018595
26 186 9.992092 -6.645155 0.029558
46 186 9.752765 -6.991678 0.021852
66 186 6.459837 -10.112888 0.010210
86 186 -2.771708 -11.675514 0.005871
106 186 -5.837828 -10.484263 0.004835
126 186 -3.534806 -11.467569 0.003503
146 186 -4.193494 -11.243425 0.002369
166 186 -10.031122 -6.586090 0.001421
186 186 -9.048979 7.881369 0.000493
