x y u v speed
26 26 5.619245 -10.603023 0.020168
46 26 11.074512 -4.621166 0.070735
66 26 11.983576 -0.627615 0.092923
86 26 11.901486 1.534482 0.097315
106 26 11.998043 -0.216737 0.081721
126 26 11.966132 0.900938 0.065212
146 26 11.412941 -3.707396 0.115397
166 26 11.178575 -4.363422 0.183720
186 26 11.669043 2.798827 0.330413
26 46 3.173349 -11.572807 0.058084
46 46 8.723419 -8.240265 0.081067
66 46 11.927576 -1.316411 0.048678
86 46 11.963524 -0.934931 0.040046
106 46 11.991763 -0.444543 0.052800
126 46 11.638927 -2.921535 0.100648
146 46 10.252778 -6.235426 0.120688
166 46 9.151974 -7.761531 0.148925
186 46 4.893274 -10.957001 0.155263
26 66 1.358533 -11.922851 0.085751
46 66 4.772358 -11.010204 0.056696
86 66 0.000000 0.000000 12.000000
106 66 11.045100 -4.691030 0.009178
126 66 0.000000 0.000000 12.000000
146 66 5.747975 -10.533793 0.074982
166 66 5.730894 -10.543095 0.065833
186 66 2.325946 -11.772424 0.070640
26 86 0.296545 -11.996335 0.099546
46 86 3.770694 -11.392184 0.048539
146 86 1.942047 -11.841809 0.061543
166 86 -5.325133 -10.753741 0.075149
186 86 3.390910 -11.510939 0.049176
26 106 -0.300128 -11.996246 0.097398
46 106 4.257846 -11.219213 0.054382
66 106 11.018808 -4.752460 0.007514
166 106 -2.449052 -11.747431 0.068265
186 106 1.531558 -11.901863 0.039019
26 126 1.710840 -11.877417 0.093596
46 126 7.847611 -9.078271 0.058388
106 126 0.000000 0.000000 12.000000
166 126 0.035535 -11.999947 0.052680
186 126 -0.443830 -11.991789 0.051587
26 146 6.567452 -10.043335 0.126646
46 146 11.999996 -0.009306 0.030948
66 146 7.542894 -9.332993 0.009412
86 146 7.054495 -9.707425 0.028822
106 146 0.000000 0.000000 12.000000
126 146 0.000000 0.000000 12.000000
146 146 -0.075708 -11.999761 0.003804
166 146 6.357467 -10.177554 0.061632
186 146 0.325564 -11.995583 0.054404
26 166 11.591377 -3.104833 0.029915
46 166 11.858901 -1.834794 0.026763
66 166 11.758862 2.393565 0.007580
86 166 10.700650 -5.431030 0.124007
106 166 11.869836 -1.762665 0.132999
126 166 11.957345 -1.010896 0.117092
146 166 11.665386 -2.814030 0.110481
166 166 10.749165 -5.334366 0.089515
186 166 4.165906 -11.253676 0.017594
26 186 11.197837 -4.313751 0.020897
46 186 11.935724 -1.240364 0.187726
66 186 11.890238 -1.619335 0.187366
86 186 11.771681 -2.329704 0.111073
106 186 11.622862 -2.984810 0.045060
126 186 11.573999 -3.168997 0.023129
146 186 11.448318 -3.596667 0.017937
166 186 10.494242 -5.819870 0.007794
186 186 -9.218655 7.682213 0.000187
