x y u v speed
26 26 6.467285 -10.108127 0.006012
46 26 10.234734 -6.265000 0.042913
66 26 11.764836 -2.364027 0.062497
86 26 11.995228 -0.338373 0.071921
106 26 11.989264 -0.507482 0.077181
126 26 11.948483 -1.110749 0.090750
146 26 11.902190 -1.529010 0.110001
166 26 11.875500 -1.724094 0.140902
186 26 11.933451 1.262042 0.249653
26 46 4.467807 -11.137266 0.033488
46 46 8.260412 -8.704343 0.043791
66 46 10.954224 -4.899488 0.041882
86 46 10.995453 -4.806247 0.046440
106 46 11.206426 -4.291390 0.056642
126 46 11.330547 -3.952052 0.064930
146 46 11.080908 -4.605810 0.071565
166 46 10.084800 -6.503600 0.088743
186 46 4.054377 -11.294336 0.180001
26 66 1.697422 -11.879342 0.055058
46 66 7.661197 -9.236128 0.055317
66 66 9.957246 -6.697257 0.029242
86 66 8.888763 -8.061631 0.037082
106 66 9.386698 -7.475955 0.050870
126 66 9.539989 -7.279328 0.038219
146 66 8.442346 -8.528001 0.053797
166 66 7.376359 -9.465164 0.068112
186 66 1.160240 -11.943778 0.064538
26 86 -3.057219 -11.604026 0.060149
46 86 -1.856103 -11.855584 0.039256
66 86 1.334279 -11.925590 0.019102
86 86 5.073454 -10.874745 0.033634
106 86 7.005647 -9.742737 0.039774
146 86 6.112679 -10.326430 0.044665
166 86 5.345191 -10.743786 0.059322
186 86 0.200431 -11.998326 0.036641
26 106 -11.992613 -0.420999 0.024627
46 106 -6.497957 -10.088437 0.145264
66 106 8.225271 -8.737558 0.035137
86 106 2.234973 -11.790034 0.032537
106 106 2.561744 -11.723373 0.036088
126 106 7.907883 -9.025818 0.045470
166 106 4.163710 -11.254489 0.041571
186 106 0.280547 -11.996720 0.043116
26 126 1.906614 11.847566 0.015181
46 126 -4.293731 -11.205529 0.111545
66 126 5.320729 -10.755921 0.038999
86 126 0.000000 0.000000 12.000000
106 126 5.167763 -10.830246 0.045699
126 126 3.547830 -11.463547 0.033363
146 126 -3.465619 -11.488668 0.020443
166 126 -7.493791 -9.372465 0.048213
186 126 1.431924 -11.914260 0.044248
26 146 3.619859 11.441006 0.007678
46 146 4.435743 -11.150075 0.085379
66 146 11.506970 -3.404355 0.011463
86 146 8.422750 -8.547355 0.054316
106 146 0.000000 0.000000 12.000000
126 146 -4.576108 -11.093207 0.011203
166 146 2.320800 -11.773440 0.028045
186 146 0.037895 -11.999940 0.045600
26 166 11.883694 -1.666678 0.367716
46 166 11.531260 -3.321151 0.327530
66 166 11.879629 1.695411 0.122561
86 166 11.820733 -2.066465 0.124804
106 166 11.754718 -2.413835 0.128678
126 166 11.603314 -3.059920 0.107485
146 166 11.447576 -3.599029 0.084343
166 166 10.668572 -5.493776 0.074939
186 166 3.647083 -11.432357 0.017886
26 186 -11.991197 0.459563 0.016920
46 186 -11.924579 1.343283 0.012221
66 186 11.736751 -2.499736 0.038366
86 186 11.677940 -2.761472 0.057413
106 186 11.997342 -0.252576 0.029647
126 186 11.994917 -0.349250 0.023914
146 186 11.975912 -0.759959 0.016485
166 186 10.944470 -4.921238 0.009539
186 186 8.187819 -8.772663 0.000492
