x y u v speed
26 26 6.605293 -10.018488 0.010421
46 26 11.443198 -3.612924 0.031686
66 26 11.628073 -2.964442 0.053288
86 26 11.712106 -2.612772 0.077766
106 26 11.828920 -2.019074 0.091789
126 26 11.946983 -1.126765 0.105562
146 26 11.951246 -1.080615 0.120598
166 26 11.830169 -2.011742 0.173796
186 26 11.844408 -1.926136 0.335976
26 46 3.023890 -11.612755 0.028334
46 46 9.568468 -7.241852 0.041220
66 46 10.722888 -5.386992 0.059183
86 46 11.055242 -4.667080 0.074297
106 46 11.400280 -3.746147 0.084528
126 46 11.645380 -2.895707 0.078273
146 46 10.882026 -5.057817 0.078352
166 46 9.595339 -7.206211 0.118678
186 46 5.447693 -10.692176 0.173613
26 66 2.054238 -11.822864 0.045845
46 66 7.470572 -9.390982 0.048440
66 66 9.603967 -7.194708 0.060965
86 66 10.224846 -6.281124 0.069924
106 66 0.000000 0.000000 12.000000
126 66 0.000000 0.000000 12.000000
146 66 4.510488 -11.120049 0.042876
166 66 5.099398 -10.862603 0.079831
186 66 3.392457 -11.510484 0.056709
26 86 1.161930 -11.943614 0.061718
46 86 5.336879 -10.747917 0.054369
66 86 7.593657 -9.291737 0.060379
146 86 2.280347 -11.781342 0.053487
166 86 2.321192 -11.773363 0.070536
186 86 2.834204 -11.660501 0.036480
26 106 -0.159305 -11.998943 0.070506
46 106 4.123131 -11.269418 0.060874
146 106 4.329908 -11.191599 0.053976
166 106 3.259002 -11.548978 0.064687
186 106 2.329906 -11.771641 0.029481
26 126 0.649799 -11.982394 0.062936
46 126 5.622546 -10.601273 0.069560
106 126 0.000000 0.000000 12.000000
146 126 7.842570 -9.082626 0.069094
166 126 5.298341 -10.766967 0.059194
186 126 2.553532 -11.725164 0.024587
26 146 7.651819 -9.243899 0.096598
46 146 10.798853 -5.233046 0.067941
66 146 8.974963 -7.965554 0.013125
86 146 10.528854 -5.757017 0.035518
106 146 10.889632 -5.041420 0.069609
126 146 11.063459 -4.647567 0.075570
146 146 9.990971 -6.646841 0.066055
166 146 7.257071 -9.556931 0.048337
186 146 3.351075 -11.522599 0.019208
26 166 11.061459 -4.652324 0.261392
46 166 11.826731 -2.031853 0.036357
66 166 11.837143 1.970292 0.009355
86 166 10.605105 -5.615315 0.119938
106 166 11.644383 -2.899713 0.110692
126 166 11.744534 -2.462907 0.081094
146 166 11.351093 -3.892646 0.058597
166 166 10.014454 -6.611408 0.036983
186 166 4.639552 -11.066822 0.010149
26 186 9.089568 -7.834523 0.011359
46 186 11.917240 -1.406909 0.161409
66 186 11.864637 -1.797325 0.163363
86 186 11.696795 -2.680481 0.087889
106 186 11.467954 -3.533557 0.029056
126 186 11.327828 -3.959836 0.011746
146 186 11.237397 -4.209621 0.008176
166 186 10.920943 -4.973229 0.004285
186 186 8.294672 -8.671702 0.000382
